{
    "project_info": {
      "project_number": "330923240615",
      "firebase_url": "https://dj-rick-geez-aff9e.firebaseio.com",
      "project_id": "dj-rick-geez-aff9e",
      "storage_bucket": "dj-rick-geez-aff9e.appspot.com"
    },
    "client": [
      {
        "client_info": {
          "mobilesdk_app_id": "1:330923240615:android:3ad75ce21a45047b",
          "android_client_info": {
            "package_name": "com.dj.rick.geez"
          }
        },
        "oauth_client": [
          {
            "client_id": "330923240615-ms819cpj5gpeq2l8lrv1vr8v01bflkg1.apps.googleusercontent.com",
            "client_type": 3
          }
        ],
        "api_key": [
          {
            "current_key": "AIzaSyCvdfot_HdFjxmS0NT-hz6_Ra4gxc1TFAA"
          }
        ],
        "services": {
          "analytics_service": {
            "status": 1
          },
          "appinvite_service": {
            "status": 1,
            "other_platform_oauth_client": []
          },
          "ads_service": {
            "status": 2
          }
        }
      }
    ],
    "configuration_version": "1"
  }